序列,组别,商品名称,商品ID,商品链接,到货情况,主播匹配,内部备注,
10,1,SOOCAS 吹风机 ,4001227541874,https://fr.aliexpress.com/item/4001227541874.html?aff_platform=shareComponent-detail&sk=_9f0gzd&aff_trace_key=a6c7722390954663843146fcdcece4b1-1603740405631-08530-_9f0gzd&terminal_id=0bb162c8a57c40648e8c9faae09291eb&tmLog=new_Detail,收到绿色,"Bianca,Faustine,Marie,Alexandre,Lexie,Paola,Vincent",,"Consumer electronics, Beauty"
17,1,anker Motion+ 音响,4000295633236,https://fr.aliexpress.com/item/4000295633236.html?aff_platform=shareComponent-detail&sk=_A43t47&aff_trace_key=133b698ad1544d2aba320c0d9a1072fb-1603740450454-08070-_A43t47&terminal_id=0bb162c8a57c40648e8c9faae09291eb&tmLog=new_Detail,已收到,"Vincent,Julien,Matéo,Faustine",,Consumer electronics
18,1,LifeQ20 casque耳机,4000263340113,https://fr.aliexpress.com/item/4000263340113.html?aff_platform=shareComponent-detail&sk=_9R58PH&aff_trace_key=48b0d45105f2453f879d79ff2dce5acb-1603740469170-08816-_9R58PH&terminal_id=0bb162c8a57c40648e8c9faae09291eb&tmLog=new_Detail,已收到,"Vincent,Julien,Matéo,",2号开始部分产品拿去第9组,Consumer electronics
19,1,eufyCam2C 蓝牙监控,4000961140701,https://fr.aliexpress.com/item/32974598779.html?aff_platform=shareComponent-detail&sk=_AUdFdd&aff_trace_key=99166a613b5c43539d2b138b5e90ac65-1603740495246-02421-_AUdFdd&terminal_id=0bb162c8a57c40648e8c9faae09291eb&tmLog=new_Detail,已收到,"Vincent,Julien,Matéo,",29号lexie拿回家30号拿回来,Consumer electronics
20,1,LibertyNeo 无线蓝牙耳机,32974598779,https://fr.aliexpress.com/item/32974598779.html?aff_platform=shareComponent-detail&sk=_AUdFdd&aff_trace_key=b164b325f5a5412f93dc914cef1b40ee-1603740522402-04797-_AUdFdd&terminal_id=0bb162c8a57c40648e8c9faae09291eb&tmLog=new_Detail,已收到,"Vincent,Julien,Matéo,Bianca,Alexandre",Faustinr 4号18点半播后拿回家,Consumer electronics
44,1,SOOCAS 电动牙刷,32949850880,https://fr.aliexpress.com/item/32949850880.html?aff_platform=shareComponent-detail&sk=_A2B1CR&aff_trace_key=97ae084c47de4d03b4473b63469d3d71-1603740561608-03950-_A2B1CR&terminal_id=0bb162c8a57c40648e8c9faae09291eb&tmLog=new_Detail,收到黑,"Vincent,Julien,Matéo,Faustine,Bianca,Marie,Alexandre,Paola,Lexie",,"Consumer electronics, Beauty, Health"
46,1,SOOCAS 洗牙机,32955673350,https://fr.aliexpress.com/item/32955673350.html,收到蓝,"Vincent,Julien,Matéo,Faustine,Bianca,Marie,Alexandre,Paola,Lexie",,"Consumer electronics, Beauty, Health"
61,1,KEELEAD 手机手持云台,32898150291,https://fr.aliexpress.com/item/32898150291.html?aff_platform=shareComponent-detail&sk=_A703d9&aff_trace_key=3000db076a7b439f8b16623b67939286-1603740675890-04561-_A703d9&terminal_id=0bb162c8a57c40648e8c9faae09291eb&tmLog=new_Detail,已收到,"Vincent,Julien,Matéo,",,Consumer electronics
62,1,KEELEAD SG906  无人机,4000817559103,https://fr.aliexpress.com/item/4000817559103.html?aff_platform=shareComponent-detail&sk=_AW3R2f&aff_trace_key=b9ed9804b0b54e959dedf5502e937ae7-1603740689997-08871-_AW3R2f&terminal_id=0bb162c8a57c40648e8c9faae09291eb&tmLog=new_Detail,已收到,"Vincent,Julien,Matéo,",,Consumer electronics
47,2,Inface导入导出仪（小鸡蛋）,4001211668637,https://fr.aliexpress.com/item/4001211668637.html,已有粉,"Bianca,Faustine,Marie,Alexandre,Lexie,Paola",,"Consumer electronics, Beauty"
49,2,Inface铲皮机,4000058706925,https://fr.aliexpress.com/item/4000058706925.html,已有白,"Bianca,Faustine,Marie,Alexandre,Lexie,Paola",,"Consumer electronics, Accessories"
51,2,Inface洁面仪,33054421609,https://fr.aliexpress.com/item/33054421609.html,已有粉,"Bianca,Faustine,Marie,Alexandre,Lexie,Paola",,"Consumer electronics, Beauty"
53,2,Inface脱毛仪,4001018751833,https://fr.aliexpress.com/item/4001018751833.html,已有一件,"Bianca,Faustine,Marie,Alexandre,Lexie,Paola",,"Consumer electronics, Beauty"
55,2,Inface黑头仪,4000172827593,https://fr.aliexpress.com/item/4000172827593.html,已有黑,"Bianca,Faustine,Marie,Alexandre,Lexie,Paola",,"Consumer electronics, Beauty"
57,2,PSB 女皮包WomenMiniShoulderBagAlligatorPUToteChainCrossbodyPouch(Purple),4001116515334,https://fr.aliexpress.com/item/4001116515334.html,已拍,,,"Fashion, Women's Fashion"
58,2,PSB女皮包RetroAlligatorLeatherHandbagWomenPureColorToteShoulderBag(White),4001108893543,https://fr.aliexpress.com/item/4001108893543.html,已拍,,,"Fashion, Women's Fashion"
59,2,PSB女皮包FashionAlligatorPUHandbagWomenSolidLeatherTotesElegantShoulderBag,4001177048888,https://fr.aliexpress.com/item/4001177048888.html,已拍,,,"Fashion, Women's Fashion"
48,3,Inface导入导出仪（小鸡蛋）,4001211668637,https://fr.aliexpress.com/item/4001211668637.html,已拍黄,"Bianca,Faustine,Marie,Alexandre,Lexie,Paola",2号到4号常驻lexie家,"Consumer electronics, Beauty"
50,3,Inface铲皮机,4000058706925,https://fr.aliexpress.com/item/4000058706925.html,已拍粉,"Bianca,Faustine,Marie,Alexandre,Lexie,Paola",5号起在PGC场,"Consumer electronics, Accessories"
52,3,Inface洁面仪,33054421609,https://fr.aliexpress.com/item/33054421609.html,已拍灰,"Bianca,Faustine,Marie,Alexandre,Lexie,Paola",,"Consumer electronics, Beauty, Health"
54,3,Inface脱毛仪,4001018751833,https://fr.aliexpress.com/item/4001018751833.html,已拍灰,"Bianca,Faustine,Marie,Alexandre,Lexie,Paola",,"Consumer electronics, Beauty, Health"
56,3,Inface黑头仪,4000172827593,https://fr.aliexpress.com/item/4000172827593.html,已拍粉,"Bianca,Faustine,Marie,Alexandre,Lexie,Paola",,"Consumer electronics, Beauty, Health"
32,4,假发,假发,https://fr.aliexpress.com/item/32971772368.html,已有一件,"Alexandre, Lexie, Paola,Faustine",,"Beauty, Hair & wigs"
33,4,假发,假发,https://fr.aliexpress.com/item/4000480580176.html,已有一件,"Alexandre, Lexie, Paola,Faustine",,"Beauty, Hair & wigs"
34,4,13*4 WIG Kinky curly 24' BEAUDIVA Lace Front Human Hair Wigs 13*4 Brazilian Kinky Curly Human Hair Wig PrePlucked with Baby Hair Curly Lace Front Wig,32964500432,https://fr.aliexpress.com/item/32964500432.html?aff_platform=shareComponent-detail&sk=_AtpPj1&aff_trace_key=8f2a5ef33dbf4d7aa4c48e99093a6a90-1603740768204-07493-_AtpPj1&terminal_id=0bb162c8a57c40648e8c9faae09291eb&tmLog=new_Detail,已收到,"Alexandre, Lexie, Paola,Faustine",,"Beauty, Hair & wigs"
35,4,4*4 wig straight 24' Beaudiva Hair 13*4 Lace Front Human Hair Wigs With Baby Hair Bleach Knots 4x4 Closure Wig Brazilian Lace Front Human Hair Wigs,32948473973,https://fr.aliexpress.com/item/32948473973.html?aff_platform=shareComponent-detail&sk=_AnGrPd&aff_trace_key=ab895de7425c435581459e9bd640854a-1603740783821-02706-_AnGrPd&terminal_id=0bb162c8a57c40648e8c9faae09291eb&tmLog=new_Detail,已收到,"Alexandre, Lexie, Paola,Faustine",,"Beauty, Hair & wigs"
36,4,13*4 WIG Kinlky straight 16  Kinky Straight Wig 13*4 Lace Front Human Hair Wigs PrePlucked Remy Yaki Lace Wig 4x4 Lace Closure Wig For Black Women U Part Wig,32980517235,https://fr.aliexpress.com/item/32980517235.html?aff_platform=shareComponent-detail&sk=_9uqSYx&aff_trace_key=379a498c975b41318900c8ade999e405-1603740793724-03245-_9uqSYx&terminal_id=0bb162c8a57c40648e8c9faae09291eb&tmLog=new_Detail,已收到,"Alexandre, Lexie, Paola,Faustine",31号lexie播后拿回家1号拿回,"Beauty, Hair & wigs"
37,4,13*4 WIG DEEP WAVE 22'Beaudiva Hair Deep Wave Wig Curly Human Hair Wig Prepluck 13*4 Lace Front Human Hair Wigs with Baby Hair Deep Wave Closure Wig,4000068754615,https://fr.aliexpress.com/item/4000068754615.html?aff_platform=shareComponent-detail&sk=_9gNtJp&aff_trace_key=9e532c91680d49b8b177df5d8e4c9d6a-1603740806414-00660-_9gNtJp&terminal_id=0bb162c8a57c40648e8c9faae09291eb&tmLog=new_Detail,已收到,"Alexandre, Lexie, Paola,Faustine",,"Beauty, Hair & wigs"
38,4,0313 BG  红BEAUDIVA Glueless Short Human Hair Wigs For Women Black With Bang Blonde Yellow Purple Brazilian Straight Hair Short Bob Wigs,33038868839,https://fr.aliexpress.com/item/33038868839.html?aff_platform=shareComponent-detail&sk=_AEKbmf&aff_trace_key=b6498bc4bc73430c9c3d2f1484d20a3d-1603740821267-09201-_AEKbmf&terminal_id=0bb162c8a57c40648e8c9faae09291eb&tmLog=new_Detail,已收到,"Alexandre, Lexie, Paola,Faustine",5号lexie  Event播完拿回家播,"Beauty, Hair & wigs"
40,4,14inchesStraight4x4HighlightBobWig,32877020570,https://fr.aliexpress.com/item/32877020570.html?aff_platform=shareComponent-detail&sk=_AOC96f&aff_trace_key=ae356021e8cb4f4d833d788d4d86b49d-1603740847166-03595-_AOC96f&terminal_id=0bb162c8a57c40648e8c9faae09291eb&tmLog=new_Detail,已拍1/2,"Alexandre, Lexie, Paola,Faustine",,"Beauty, Hair & wigs"
42,4,22inchstraightheadbandwig,1005001579871630,https://fr.aliexpress.com/item/1005001579871630.html?aff_platform=shareComponent-detail&sk=_AYdT7h&aff_trace_key=bb962226698e4cc1887dc13dc4cff8b5-1603740860467-06133-_AYdT7h&terminal_id=0bb162c8a57c40648e8c9faae09291eb&tmLog=new_Detail,已拍,"Alexandre, Lexie, Paola,Faustine",,"Beauty, Hair & wigs"
43,4,12inchwaterwave4x4bobwig,1005001340182832,https://fr.aliexpress.com/item/1005001340182832.html?aff_platform=shareComponent-detail&sk=_AUO6fV&aff_trace_key=f67040a736bb490381549fe9a990e0ed-1603740871816-02682-_AUO6fV&terminal_id=0bb162c8a57c40648e8c9faae09291eb&tmLog=new_Detail,已拍,"Alexandre, Lexie, Paola,Faustine",,"Beauty, Hair & wigs"
,9,SOOCAS 吹风机 ,4001227541874,https://fr.aliexpress.com/item/4001227541874.html?aff_platform=shareComponent-detail&sk=_9f0gzd&aff_trace_key=a6c7722390954663843146fcdcece4b1-1603740405631-08530-_9f0gzd&terminal_id=0bb162c8a57c40648e8c9faae09291eb&tmLog=new_Detail,,,,"Consumer electronics, Beauty, Health"
,9,anker Motion+ 音响,4000295633236,https://fr.aliexpress.com/item/4000295633236.html?aff_platform=shareComponent-detail&sk=_A43t47&aff_trace_key=133b698ad1544d2aba320c0d9a1072fb-1603740450454-08070-_A43t47&terminal_id=0bb162c8a57c40648e8c9faae09291eb&tmLog=new_Detail,,,,Consumer electronics
,9,LifeQ20 casque耳机,4000263340113,https://fr.aliexpress.com/item/4000263340113.html?aff_platform=shareComponent-detail&sk=_9R58PH&aff_trace_key=48b0d45105f2453f879d79ff2dce5acb-1603740469170-08816-_9R58PH&terminal_id=0bb162c8a57c40648e8c9faae09291eb&tmLog=new_Detail,,,,Consumer electronics
,9,eufyCam2C 蓝牙监控,4000961140701,https://fr.aliexpress.com/item/32974598779.html?aff_platform=shareComponent-detail&sk=_AUdFdd&aff_trace_key=99166a613b5c43539d2b138b5e90ac65-1603740495246-02421-_AUdFdd&terminal_id=0bb162c8a57c40648e8c9faae09291eb&tmLog=new_Detail,,,,Consumer electronics
39,5,0313 BG  金 BEAUDIVA Glueless Short Human Hair Wigs For Women Black With Bang Blonde Yellow Purple Brazilian Straight Hair Short Bob Wigs,33038868839,https://fr.aliexpress.com/item/33038868839.html?aff_platform=shareComponent-detail&sk=_AEKbmf&aff_trace_key=c7bb9730b3444e1ea723ebb8f30f6ad1-1603740898196-00957-_AEKbmf&terminal_id=0bb162c8a57c40648e8c9faae09291eb&tmLog=new_Detail,已收到,"Alexandre, Lexie, Paola,Faustine",2号起常驻lexie家,"Beauty, Hair & wigs"
41,5,14inchesStraight4x4HighlightBobWig,32877020570,https://fr.aliexpress.com/item/32877020570.html?aff_platform=shareComponent-detail&sk=_AOC96f&aff_trace_key=c35f5b0b4d5840cd9f831f2c1de35277-1603740926101-02083-_AOC96f&terminal_id=0bb162c8a57c40648e8c9faae09291eb&tmLog=new_Detail,已拍2/2,"Alexandre, Lexie, Paola,Faustine",,"Beauty, Hair & wigs"
1,6,honor 手环,honor band 5（手环）,https://fr.aliexpress.com/item/4000469601185.html,已有一件,"Vincent,Julien,Matéo,Faustine,Bianca,Marie,Alexandre,Paola,Lexie",,"Jewelry, Fashion, Consumer electronics"
2,6,ANKER 音响,Anker Soundcore 2 Portable Bluetooth Speaker,https://fr.aliexpress.com/item/32718503055.html?tt=1&aff_platform=ae_social&sk=_dTiSVgs&aff_trace_key=dc33ecdec4f64e5b86ce20b22eb45f68-1603740952050-04101-_dTiSVgs&terminal_id=0bb162c8a57c40648e8c9faae09291eb&tmLog=new_Detail,已有一件,"Matéo,Vincent,Julien,Faustine,Lexie,Paola,Bianca,Marie",,Consumer electronics
3,6,ANKER 无线蓝牙耳机,Anker Soundcore Liberty Air 2 ,https://fr.aliexpress.com/item/4000344862592.html?tt=1&aff_platform=ae_social&sk=_dYiVpFI&aff_trace_key=0c2c46c0ae1d4660b1c180f24ece34c3-1603740971058-04897-_dYiVpFI&terminal_id=0bb162c8a57c40648e8c9faae09291eb&tmLog=new_Detail,已有一件,"Vincent,Julien,Matéo,Faustine",,Consumer electronics
4,6,Blackview A80 手机,Blackview A80 Pro手机,https://fr.aliexpress.com/item/4000335766393.html,已有一件,"Vincent,Julien,Matéo,Faustine,Bianca,Marie,Alexandre,Paola,Lexie",,Consumer electronics
8,6,Ilife Official Store扫地机器人粉,4001133735751,https://fr.aliexpress.com/item/4001133735751.html,已收到,,,Consumer electronics
9,6,Ilife Official Store扫地机器人白,32854648739,https://fr.aliexpress.com/item/32854648739.html,已收到,,,Consumer electronics
11,6,手机75mm微距摄像头,手机75mm微距摄像头,https://fr.aliexpress.com/item/32888113922.html,已有一件,"Vincent,Julien,Matéo,Faustine",,Consumer electronics
14,6,Tigernu 双肩背包,双肩背包,https://fr.aliexpress.com/item/32323897371.html,已有一件,"Vincent,Julien,Matéo,Faustine,Lexie,Alexandre,Paola,Marie",,Fashion
5,7,LANSENXI 无人机camera,10000057200833,https://fr.aliexpress.com/item/10000057200833.html,已拍,,,Consumer electronics
6,7,LANSENXI 无人机,4001059345290,https://fr.aliexpress.com/item/4001059345290.html,已拍,,29号18点后mateo常驻家,Consumer electronics
7,7,LANSENXI 无人机银色,10000053498585,https://fr.aliexpress.com/item/10000053498585.html,已拍,,,Consumer electronics
12,7,MARK RYDEN 双肩包,双肩包,https://fr.aliexpress.com/item/32957656581.html,已有一件,"Vincent,Julien,Matéo,Faustine,Lexie,Alexandre,Paola,Marie",,Fashion
13,7,MARK RYDEN 双肩包,双肩包,https://fr.aliexpress.com/item/4000195970825.html,已有一件,"Vincent,Julien,Matéo,Faustine,Lexie,Alexandre,Paola,Marie",,Fashion
15,7,EACHINE 无人机,遥控玩具（无人机）,https://fr.aliexpress.com/item/32837242349.html,已有一件,"Matéo,Vincent,Julien",,Consumer electronics
16,7,70mai 车载吸尘器,70mai车载吸尘器,https://fr.aliexpress.com/item/4000613210227.html,已有一件,"Vincent,Julien,Matéo,Faustine,Bianca,Marie,Alexandre,Paola,Lexie",,Consumer electronics
21,7,Keelead手持云台,Keelead手持云台,https://fr.aliexpress.com/item/4000416021731.html,已有一件,"Vincent,Julien,Matéo,Faustine",,Consumer electronics
22,7,华为 P30,华为P30,https://fr.aliexpress.com/item/4000155925190.html,已有一件,"Vincent,Julien,Matéo,Faustine,Bianca,Marie,Alexandre,Paola,Lexie",,Consumer electronics
23,7,ACFYB-B0G倍思橙点PPT翻页笔（红光）(不带电池）灰色,4000954955614,https://fr.aliexpress.com/item/4000954955614.html?aff_platform=shareComponent-detail&sk=_AOmFIP&aff_trace_key=6c25a82546e24ef5b51a8a149ba21c70-1603741008019-02822-_AOmFIP&terminal_id=0bb162c8a57c40648e8c9faae09291eb&tmLog=new_Detail,已收到,"Vincent,Julien,Matéo,",,Consumer electronics
24,8,倍思EncokTWS真无线蓝牙耳机W09,4000250192727,https://fr.aliexpress.com/item/4000250192727.html?aff_platform=shareComponent-detail&sk=_AEEkEf&aff_trace_key=900b23e35a7b4d559f9af6555d2b1af3-1603741091795-02223-_AEEkEf&terminal_id=8e427a4b0e2b4afb8e92752e13b6a670&tmLog=new_Detail,已收到,"Vincent,Julien,Matéo,Faustine,Bianca,Marie,Alexandre",2号起常驻julien家,Consumer electronics
25,8,倍思EncokTWS真无线蓝牙耳机WM01,4001143643690,https://fr.aliexpress.com/item/4001143643690.html?aff_platform=shareComponent-detail&sk=_9Iy56n&aff_trace_key=4b77025f3a50457ba4b85bbb5e3c55c7-1603741124983-05826-_9Iy56n&terminal_id=8e427a4b0e2b4afb8e92752e13b6a670&tmLog=new_Detail,已收到,"Vincent,Julien,Matéo,Faustine,Bianca,Marie,Alexandre",,Consumer electronics
26,8,倍思EncokTWS真无线蓝牙耳机WM01,4001143643690,https://fr.aliexpress.com/item/4001143643690.html?aff_platform=shareComponent-detail&sk=_9Iy56n&aff_trace_key=07ea78223b054ce59be67c174232c12d-1603741195958-06944-_9Iy56n&terminal_id=8e427a4b0e2b4afb8e92752e13b6a670&tmLog=new_Detail,已收到,"Vincent,Julien,Matéo,Faustine,Bianca,Marie,Alexandre",,Consumer electronics
27,8,倍思EncokTWS真无线蓝牙耳机WM01Plus,4001263969368,https://fr.aliexpress.com/item/4001263969368.html,·已收到,"Vincent,Julien,Matéo,Faustine,Bianca,Marie,Alexandre",,Consumer electronics
28,8,倍思恋系列蓝牙折叠支架式自拍杆,4000465541882,https://fr.aliexpress.com/item/4000465541882.html,已收到,"Vincent,Julien,Matéo,Faustine,Bianca",,Consumer electronics
29,8,holy stone 无人机camera,4000300001859,https://fr.aliexpress.com/item/4000300001859.html,已收到,,,Consumer electronics
30,8,holy 遥控车,4000773096781,https://fr.aliexpress.com/item/4000773096781.html,已收到,,,Consumer electronics
31,8,soocas电动剃须刀,33045183711,https://fr.aliexpress.com/item/33045183711.html,已收到,,,"Consumer electronics, Beauty, Health"
60,8,Ilife 无线手持吸尘器,4000752308786,https://fr.aliexpress.com/item/4000752308786.html,已收到,,,Consumer electronics
45,1,SOOCAS 电动牙刷,32949850880,https://fr.aliexpress.com/item/32949850880.html?aff_platform=shareComponent-detail&sk=_A2B1CR&aff_trace_key=97ae084c47de4d03b4473b63469d3d71-1603740561608-03950-_A2B1CR&terminal_id=0bb162c8a57c40648e8c9faae09291eb&tmLog=new_Detail,收到粉,"Vincent,Julien,Matéo,Faustine,Bianca,Marie,Alexandre,Paola,Lexie",,"Consumer electronics, Beauty, Health"
,,,,,,,,
,,,,,,,,
,,,,,,,,
,,,,,,,,
,,,,,,,,
,,,,,,,,
,,,,,,,,
,,,,,,,,
,,,,,,,,
,,,,,,,,
,,,,,,,,
,,,,,,,,
,,,,,,,,
,,,,,,,,
63,,化妆刷,32946568440,https://s.click.aliexpress.com/e/_A4lu1Z,,"Bianca,Faustine,Marie,Alexandre,Lexie,Paola",每场需差异化，每场不超过3款,"Women's Fashion, Beauty"
64,,化妆刷,32949775680,https://s.click.aliexpress.com/e/_9R981v,,"Bianca,Faustine,Marie,Alexandre,Lexie,Paola",,"Women's Fashion, Beauty"
65,,化妆刷,4000423995716,https://s.click.aliexpress.com/e/_9ymgQx,,"Bianca,Faustine,Marie,Alexandre,Lexie,Paola",,"Women's Fashion, Beauty"
66,,化妆刷,1005001494719216,https://s.click.aliexpress.com/e/_9fASvv,,"Bianca,Faustine,Marie,Alexandre,Lexie,Paola",,"Women's Fashion, Beauty"
67,,化妆刷,32950578175,https://s.click.aliexpress.com/e/_AlWC8r,,"Bianca,Faustine,Marie,Alexandre,Lexie,Paola",,"Women's Fashion, Beauty"
68,,化妆刷,32950570219,https://s.click.aliexpress.com/e/_9fiPNl,,"Bianca,Faustine,Marie,Alexandre,Lexie,Paola",,"Women's Fashion, Beauty"
69,,化妆刷,4000424077282,https://s.click.aliexpress.com/e/_9xmFXh,,"Bianca,Faustine,Marie,Alexandre,Lexie,Paola",,"Women's Fashion, Beauty"
70,,化妆刷,1005001515113974,https://s.click.aliexpress.com/e/_9vaACX,,"Bianca,Faustine,Marie,Alexandre,Lexie,Paola",,"Women's Fashion, Beauty"
71,,硅胶铲9件套,硅胶铲9件套,https://fr.aliexpress.com/item/4000511575516.html,已有一件,"Vincent,Julien,Matéo,Faustine,Bianca,Marie,Alexandre,Paola,Lexie",,"Garden（including home appliances, Accessories"
72,,薯条切割器,薯条切割器,https://fr.aliexpress.com/item/4000548632039.html,已有一件,"Vincent,Julien,Matéo,Faustine,Bianca,Marie,Alexandre,Paola,Lexie",,Accessories